…
## Warning: Column `Sex`/`sex` joining character vector and factor, coercing into
## character vector

fs<-fs%>%dplyr::select(-`NA`)

##Tidying: Although the dataset was already tidy, i used pivot_wider to use names from sex (male and female) to become separate columns with values from smoke (smoking status) in these columns. I then undid this by using pivot_longer. I changed the uppercase of Sex in survey to lowercase, so that the data could be joined.
##Joining: I used full_join for these data sets because this retains all the original data, in case I wanted to create more plots/correlation charts for future purposes.

library(dplyr)
fs%>%filter(Clap=="Left")

## # A tibble: 218 x 39
##    Wr.Hnd NW.Hnd W.Hnd Fold  Pulse Clap  Exer  Height M.I     Age Sex   Smoke
##     <dbl>  <dbl> <fct> <fct> <int> <fct> <fct>  <dbl> <fct> <dbl> <chr> <fct>
##  1   18.5   18   Right R on…    92 Left  Some    173  Metr…  18.2 fema… Never
##  2   18.5   18   Right R on…    92 Left  Some    173  Metr…  18.2 male  <NA> 
##  3   19.5   20.5 Left  R on…   104 Left  None    178. Impe…  17.6 fema… <NA> 
##  4   19.5   20.5 Left  R on…   104 Left  None    178. Impe…  17.6 male  Regul
##  5   21     21   Right R on…    68 Left  Freq     NA  <NA>   18.2 fema… <NA> 
##  6   21     21   Right R on…    68 Left  Freq     NA  <NA>   18.2 male  Never
##  7   20.5   20.5 Right L on…    NA Left  Some    190. Impe…  19.8 fema… <NA> 
##  8   20.5   20.5 Right L on…    NA Left  Some    190. Impe…  19.8 male  Never
##  9   21.5   22   Right R on…    72 Left  Freq    190. Impe…  17.9 fema… <NA> 
## 10   21.5   22   Right R on…    72 Left  Freq    190. Impe…  17.9 male  Never
## # … with 208 more rows, and 27 more variables: eyes <fct>, piercings <int>,
## #   pierced <fct>, tattoos <int>, tattooed <fct>, glasses <fct>, sleep <int>,
## #   study <int>, tv <int>, movies <int>, movies3m <fct>, sport <fct>,
## #   entertainment <fct>, fruit <fct>, income <dbl>, rent <dbl>, clothes <dbl>,
## #   hair <dbl>, tobacco <int>, smokes <fct>, alcohol <dbl>, buy.alcohol <fct>,
## #   sendtxt <int>, receivetxt <int>, txts <fct>, country <fct>, status <fct>
…
fs%>%arrange(Age)

## # A tibble: 2,516 x 39
##    Wr.Hnd NW.Hnd W.Hnd Fold  Pulse Clap  Exer  Height M.I     Age Sex   Smoke
##     <dbl>  <dbl> <fct> <fct> <int> <fct> <fct>  <dbl> <fct> <dbl> <chr> <fct>
##  1   19.5   19.5 Left  R on…    66 Left  Some      NA <NA>   16.8 fema… <NA> 
##  2   19.5   19.5 Left  R on…    66 Left  Some      NA <NA>   16.8 male  Never
##  3   18     13.3 Right L on…    87 Neit… None      NA <NA>   16.9 fema… <NA> 
##  4   18     13.3 Right L on…    87 Neit… None      NA <NA>   16.9 male  Occas
##  5   18.5   18   Right R on…    64 Right Freq      NA <NA>   16.9 fema… Never
##  6   18.5   18   Right R on…    64 Right Freq      NA <NA>   16.9 male  <NA> 
##  7   18.5   18   Right L on…    88 Right Some     160 Metr…  16.9 fema… Never
##  8   18.5   18   Right L on…    88 Right Some     160 Metr…  16.9 male  <NA> 
##  9   16.2   16.4 Right R on…    NA Right Freq     172 Metr…  17   fema… Occas
## 10   16.2   16.4 Right R on…    NA Right Freq     172 Metr…  17   male  <NA> 
## # … with 2,506 more rows, and 27 more variables: eyes <fct>, piercings <int>,
## #   pierced <fct>, tattoos <int>, tattooed <fct>, glasses <fct>, sleep <int>,
## #   study <int>, tv <int>, movies <int>, movies3m <fct>, sport <fct>,
## #   entertainment <fct>, fruit <fct>, income <dbl>, rent <dbl>, clothes <dbl>,
## #   hair <dbl>, tobacco <int>, smokes <fct>, alcohol <dbl>, buy.alcohol <fct>,
## #   sendtxt <int>, receivetxt <int>, txts <fct>, country <fct>, status <fct>

fs%>%dplyr::select(1,2)

## # A tibble: 2,516 x 2
##    Wr.Hnd NW.Hnd
##     <dbl>  <dbl>
##  1   18.5   18  
##  2   18.5   18  
##  3   19.5   20.5
##  4   19.5   20.5
##  5   18     13.3
##  6   18     13.3
##  7   18.8   18.9
##  8   18.8   18.9
##  9   20     20  
## 10   20     20  
## # … with 2,506 more rows

fs%>%mutate(average=Wr.Hnd/NW.Hnd)

## # A tibble: 2,516 x 40
##    Wr.Hnd NW.Hnd W.Hnd Fold  Pulse Clap  Exer  Height M.I     Age Sex   Smoke
##     <dbl>  <dbl> <fct> <fct> <int> <fct> <fct>  <dbl> <fct> <dbl> <chr> <fct>
##  1   18.5   18   Right R on…    92 Left  Some    173  Metr…  18.2 fema… Never
##  2   18.5   18   Right R on…    92 Left  Some    173  Metr…  18.2 male  <NA> 
##  3   19.5   20.5 Left  R on…   104 Left  None    178. Impe…  17.6 fema… <NA> 
##  4   19.5   20.5 Left  R on…   104 Left  None    178. Impe…  17.6 male  Regul
##  5   18     13.3 Right L on…    87 Neit… None     NA  <NA>   16.9 fema… <NA> 
##  6   18     13.3 Right L on…    87 Neit… None     NA  <NA>   16.9 male  Occas
##  7   18.8   18.9 Right R on…    NA Neit… None    160  Metr…  20.3 fema… <NA> 
##  8   18.8   18.9 Right R on…    NA Neit… None    160  Metr…  20.3 male  Never
##  9   20     20   Right Neit…    35 Right Some    165  Metr…  23.7 fema… <NA> 
## 10   20     20   Right Neit…    35 Right Some    165  Metr…  23.7 male  Never
## # … with 2,506 more rows, and 28 more variables: eyes <fct>, piercings <int>,
## #   pierced <fct>, tattoos <int>, tattooed <fct>, glasses <fct>, sleep <int>,
## #   study <int>, tv <int>, movies <int>, movies3m <fct>, sport <fct>,
## #   entertainment <fct>, fruit <fct>, income <dbl>, rent <dbl>, clothes <dbl>,
## #   hair <dbl>, tobacco <int>, smokes <fct>, alcohol <dbl>, buy.alcohol <fct>,
## #   sendtxt <int>, receivetxt <int>, txts <fct>, country <fct>, status <fct>,
## #   average <dbl>
…
